('D:\\sandbox\\ros2_py2exe_ws\\build\\main\\PYZ-00.pyz',
 [('__future__', 'C:\\Python38\\lib\\__future__.py', 'PYMODULE'),
  ('_compat_pickle', 'C:\\Python38\\lib\\_compat_pickle.py', 'PYMODULE'),
  ('_compression', 'C:\\Python38\\lib\\_compression.py', 'PYMODULE'),
  ('_dummy_thread', 'C:\\Python38\\lib\\_dummy_thread.py', 'PYMODULE'),
  ('_py_abc', 'C:\\Python38\\lib\\_py_abc.py', 'PYMODULE'),
  ('_pydecimal', 'C:\\Python38\\lib\\_pydecimal.py', 'PYMODULE'),
  ('_pyi_rth_utils',
   'C:\\Python38\\lib\\site-packages\\PyInstaller\\fake-modules\\_pyi_rth_utils\\__init__.py',
   'PYMODULE'),
  ('_strptime', 'C:\\Python38\\lib\\_strptime.py', 'PYMODULE'),
  ('_threading_local', 'C:\\Python38\\lib\\_threading_local.py', 'PYMODULE'),
  ('action_msgs',
   'C:\\dev\\ros2_humble\\Lib\\site-packages\\action_msgs\\__init__.py',
   'PYMODULE'),
  ('action_msgs.msg',
   'C:\\dev\\ros2_humble\\Lib\\site-packages\\action_msgs\\msg\\__init__.py',
   'PYMODULE'),
  ('action_msgs.msg._goal_info',
   'C:\\dev\\ros2_humble\\Lib\\site-packages\\action_msgs\\msg\\_goal_info.py',
   'PYMODULE'),
  ('action_msgs.msg._goal_status',
   'C:\\dev\\ros2_humble\\Lib\\site-packages\\action_msgs\\msg\\_goal_status.py',
   'PYMODULE'),
  ('action_msgs.msg._goal_status_array',
   'C:\\dev\\ros2_humble\\Lib\\site-packages\\action_msgs\\msg\\_goal_status_array.py',
   'PYMODULE'),
  ('action_msgs.srv',
   'C:\\dev\\ros2_humble\\Lib\\site-packages\\action_msgs\\srv\\__init__.py',
   'PYMODULE'),
  ('action_msgs.srv._cancel_goal',
   'C:\\dev\\ros2_humble\\Lib\\site-packages\\action_msgs\\srv\\_cancel_goal.py',
   'PYMODULE'),
  ('ament_index_python',
   'C:\\dev\\ros2_humble\\Lib\\site-packages\\ament_index_python\\__init__.py',
   'PYMODULE'),
  ('ament_index_python.constants',
   'C:\\dev\\ros2_humble\\Lib\\site-packages\\ament_index_python\\constants.py',
   'PYMODULE'),
  ('ament_index_python.packages',
   'C:\\dev\\ros2_humble\\Lib\\site-packages\\ament_index_python\\packages.py',
   'PYMODULE'),
  ('ament_index_python.resources',
   'C:\\dev\\ros2_humble\\Lib\\site-packages\\ament_index_python\\resources.py',
   'PYMODULE'),
  ('ament_index_python.search_paths',
   'C:\\dev\\ros2_humble\\Lib\\site-packages\\ament_index_python\\search_paths.py',
   'PYMODULE'),
  ('argparse', 'C:\\Python38\\lib\\argparse.py', 'PYMODULE'),
  ('ast', 'C:\\Python38\\lib\\ast.py', 'PYMODULE'),
  ('asyncio', 'C:\\Python38\\lib\\asyncio\\__init__.py', 'PYMODULE'),
  ('asyncio.base_events',
   'C:\\Python38\\lib\\asyncio\\base_events.py',
   'PYMODULE'),
  ('asyncio.base_futures',
   'C:\\Python38\\lib\\asyncio\\base_futures.py',
   'PYMODULE'),
  ('asyncio.base_subprocess',
   'C:\\Python38\\lib\\asyncio\\base_subprocess.py',
   'PYMODULE'),
  ('asyncio.base_tasks',
   'C:\\Python38\\lib\\asyncio\\base_tasks.py',
   'PYMODULE'),
  ('asyncio.constants', 'C:\\Python38\\lib\\asyncio\\constants.py', 'PYMODULE'),
  ('asyncio.coroutines',
   'C:\\Python38\\lib\\asyncio\\coroutines.py',
   'PYMODULE'),
  ('asyncio.events', 'C:\\Python38\\lib\\asyncio\\events.py', 'PYMODULE'),
  ('asyncio.exceptions',
   'C:\\Python38\\lib\\asyncio\\exceptions.py',
   'PYMODULE'),
  ('asyncio.format_helpers',
   'C:\\Python38\\lib\\asyncio\\format_helpers.py',
   'PYMODULE'),
  ('asyncio.futures', 'C:\\Python38\\lib\\asyncio\\futures.py', 'PYMODULE'),
  ('asyncio.locks', 'C:\\Python38\\lib\\asyncio\\locks.py', 'PYMODULE'),
  ('asyncio.log', 'C:\\Python38\\lib\\asyncio\\log.py', 'PYMODULE'),
  ('asyncio.proactor_events',
   'C:\\Python38\\lib\\asyncio\\proactor_events.py',
   'PYMODULE'),
  ('asyncio.protocols', 'C:\\Python38\\lib\\asyncio\\protocols.py', 'PYMODULE'),
  ('asyncio.queues', 'C:\\Python38\\lib\\asyncio\\queues.py', 'PYMODULE'),
  ('asyncio.runners', 'C:\\Python38\\lib\\asyncio\\runners.py', 'PYMODULE'),
  ('asyncio.selector_events',
   'C:\\Python38\\lib\\asyncio\\selector_events.py',
   'PYMODULE'),
  ('asyncio.sslproto', 'C:\\Python38\\lib\\asyncio\\sslproto.py', 'PYMODULE'),
  ('asyncio.staggered', 'C:\\Python38\\lib\\asyncio\\staggered.py', 'PYMODULE'),
  ('asyncio.streams', 'C:\\Python38\\lib\\asyncio\\streams.py', 'PYMODULE'),
  ('asyncio.subprocess',
   'C:\\Python38\\lib\\asyncio\\subprocess.py',
   'PYMODULE'),
  ('asyncio.tasks', 'C:\\Python38\\lib\\asyncio\\tasks.py', 'PYMODULE'),
  ('asyncio.transports',
   'C:\\Python38\\lib\\asyncio\\transports.py',
   'PYMODULE'),
  ('asyncio.trsock', 'C:\\Python38\\lib\\asyncio\\trsock.py', 'PYMODULE'),
  ('asyncio.unix_events',
   'C:\\Python38\\lib\\asyncio\\unix_events.py',
   'PYMODULE'),
  ('asyncio.windows_events',
   'C:\\Python38\\lib\\asyncio\\windows_events.py',
   'PYMODULE'),
  ('asyncio.windows_utils',
   'C:\\Python38\\lib\\asyncio\\windows_utils.py',
   'PYMODULE'),
  ('atomicwrites',
   'C:\\Python38\\lib\\site-packages\\atomicwrites\\__init__.py',
   'PYMODULE'),
  ('base64', 'C:\\Python38\\lib\\base64.py', 'PYMODULE'),
  ('bdb', 'C:\\Python38\\lib\\bdb.py', 'PYMODULE'),
  ('bisect', 'C:\\Python38\\lib\\bisect.py', 'PYMODULE'),
  ('builtin_interfaces',
   'C:\\dev\\ros2_humble\\Lib\\site-packages\\builtin_interfaces\\__init__.py',
   'PYMODULE'),
  ('builtin_interfaces.msg',
   'C:\\dev\\ros2_humble\\Lib\\site-packages\\builtin_interfaces\\msg\\__init__.py',
   'PYMODULE'),
  ('builtin_interfaces.msg._duration',
   'C:\\dev\\ros2_humble\\Lib\\site-packages\\builtin_interfaces\\msg\\_duration.py',
   'PYMODULE'),
  ('builtin_interfaces.msg._time',
   'C:\\dev\\ros2_humble\\Lib\\site-packages\\builtin_interfaces\\msg\\_time.py',
   'PYMODULE'),
  ('bz2', 'C:\\Python38\\lib\\bz2.py', 'PYMODULE'),
  ('calendar', 'C:\\Python38\\lib\\calendar.py', 'PYMODULE'),
  ('cmd', 'C:\\Python38\\lib\\cmd.py', 'PYMODULE'),
  ('code', 'C:\\Python38\\lib\\code.py', 'PYMODULE'),
  ('codeop', 'C:\\Python38\\lib\\codeop.py', 'PYMODULE'),
  ('concurrent', 'C:\\Python38\\lib\\concurrent\\__init__.py', 'PYMODULE'),
  ('concurrent.futures',
   'C:\\Python38\\lib\\concurrent\\futures\\__init__.py',
   'PYMODULE'),
  ('concurrent.futures._base',
   'C:\\Python38\\lib\\concurrent\\futures\\_base.py',
   'PYMODULE'),
  ('concurrent.futures.process',
   'C:\\Python38\\lib\\concurrent\\futures\\process.py',
   'PYMODULE'),
  ('concurrent.futures.thread',
   'C:\\Python38\\lib\\concurrent\\futures\\thread.py',
   'PYMODULE'),
  ('configparser', 'C:\\Python38\\lib\\configparser.py', 'PYMODULE'),
  ('contextlib', 'C:\\Python38\\lib\\contextlib.py', 'PYMODULE'),
  ('contextvars', 'C:\\Python38\\lib\\contextvars.py', 'PYMODULE'),
  ('copy', 'C:\\Python38\\lib\\copy.py', 'PYMODULE'),
  ('csv', 'C:\\Python38\\lib\\csv.py', 'PYMODULE'),
  ('ctypes', 'C:\\Python38\\lib\\ctypes\\__init__.py', 'PYMODULE'),
  ('ctypes._aix', 'C:\\Python38\\lib\\ctypes\\_aix.py', 'PYMODULE'),
  ('ctypes._endian', 'C:\\Python38\\lib\\ctypes\\_endian.py', 'PYMODULE'),
  ('ctypes.macholib',
   'C:\\Python38\\lib\\ctypes\\macholib\\__init__.py',
   'PYMODULE'),
  ('ctypes.macholib.dyld',
   'C:\\Python38\\lib\\ctypes\\macholib\\dyld.py',
   'PYMODULE'),
  ('ctypes.macholib.dylib',
   'C:\\Python38\\lib\\ctypes\\macholib\\dylib.py',
   'PYMODULE'),
  ('ctypes.macholib.framework',
   'C:\\Python38\\lib\\ctypes\\macholib\\framework.py',
   'PYMODULE'),
  ('ctypes.util', 'C:\\Python38\\lib\\ctypes\\util.py', 'PYMODULE'),
  ('ctypes.wintypes', 'C:\\Python38\\lib\\ctypes\\wintypes.py', 'PYMODULE'),
  ('dataclasses', 'C:\\Python38\\lib\\dataclasses.py', 'PYMODULE'),
  ('datetime', 'C:\\Python38\\lib\\datetime.py', 'PYMODULE'),
  ('decimal', 'C:\\Python38\\lib\\decimal.py', 'PYMODULE'),
  ('difflib', 'C:\\Python38\\lib\\difflib.py', 'PYMODULE'),
  ('dis', 'C:\\Python38\\lib\\dis.py', 'PYMODULE'),
  ('doctest', 'C:\\Python38\\lib\\doctest.py', 'PYMODULE'),
  ('dot_parser', 'C:\\Python38\\lib\\site-packages\\dot_parser.py', 'PYMODULE'),
  ('dummy_threading', 'C:\\Python38\\lib\\dummy_threading.py', 'PYMODULE'),
  ('em', 'C:\\Python38\\lib\\site-packages\\em.py', 'PYMODULE'),
  ('email', 'C:\\Python38\\lib\\email\\__init__.py', 'PYMODULE'),
  ('email._encoded_words',
   'C:\\Python38\\lib\\email\\_encoded_words.py',
   'PYMODULE'),
  ('email._header_value_parser',
   'C:\\Python38\\lib\\email\\_header_value_parser.py',
   'PYMODULE'),
  ('email._parseaddr', 'C:\\Python38\\lib\\email\\_parseaddr.py', 'PYMODULE'),
  ('email._policybase', 'C:\\Python38\\lib\\email\\_policybase.py', 'PYMODULE'),
  ('email.base64mime', 'C:\\Python38\\lib\\email\\base64mime.py', 'PYMODULE'),
  ('email.charset', 'C:\\Python38\\lib\\email\\charset.py', 'PYMODULE'),
  ('email.contentmanager',
   'C:\\Python38\\lib\\email\\contentmanager.py',
   'PYMODULE'),
  ('email.encoders', 'C:\\Python38\\lib\\email\\encoders.py', 'PYMODULE'),
  ('email.errors', 'C:\\Python38\\lib\\email\\errors.py', 'PYMODULE'),
  ('email.feedparser', 'C:\\Python38\\lib\\email\\feedparser.py', 'PYMODULE'),
  ('email.generator', 'C:\\Python38\\lib\\email\\generator.py', 'PYMODULE'),
  ('email.header', 'C:\\Python38\\lib\\email\\header.py', 'PYMODULE'),
  ('email.headerregistry',
   'C:\\Python38\\lib\\email\\headerregistry.py',
   'PYMODULE'),
  ('email.iterators', 'C:\\Python38\\lib\\email\\iterators.py', 'PYMODULE'),
  ('email.message', 'C:\\Python38\\lib\\email\\message.py', 'PYMODULE'),
  ('email.parser', 'C:\\Python38\\lib\\email\\parser.py', 'PYMODULE'),
  ('email.policy', 'C:\\Python38\\lib\\email\\policy.py', 'PYMODULE'),
  ('email.quoprimime', 'C:\\Python38\\lib\\email\\quoprimime.py', 'PYMODULE'),
  ('email.utils', 'C:\\Python38\\lib\\email\\utils.py', 'PYMODULE'),
  ('fnmatch', 'C:\\Python38\\lib\\fnmatch.py', 'PYMODULE'),
  ('ftplib', 'C:\\Python38\\lib\\ftplib.py', 'PYMODULE'),
  ('getopt', 'C:\\Python38\\lib\\getopt.py', 'PYMODULE'),
  ('getpass', 'C:\\Python38\\lib\\getpass.py', 'PYMODULE'),
  ('gettext', 'C:\\Python38\\lib\\gettext.py', 'PYMODULE'),
  ('glob', 'C:\\Python38\\lib\\glob.py', 'PYMODULE'),
  ('gzip', 'C:\\Python38\\lib\\gzip.py', 'PYMODULE'),
  ('hashlib', 'C:\\Python38\\lib\\hashlib.py', 'PYMODULE'),
  ('hmac', 'C:\\Python38\\lib\\hmac.py', 'PYMODULE'),
  ('html', 'C:\\Python38\\lib\\html\\__init__.py', 'PYMODULE'),
  ('html.entities', 'C:\\Python38\\lib\\html\\entities.py', 'PYMODULE'),
  ('http', 'C:\\Python38\\lib\\http\\__init__.py', 'PYMODULE'),
  ('http.client', 'C:\\Python38\\lib\\http\\client.py', 'PYMODULE'),
  ('http.cookiejar', 'C:\\Python38\\lib\\http\\cookiejar.py', 'PYMODULE'),
  ('http.server', 'C:\\Python38\\lib\\http\\server.py', 'PYMODULE'),
  ('importlib', 'C:\\Python38\\lib\\importlib\\__init__.py', 'PYMODULE'),
  ('importlib._bootstrap',
   'C:\\Python38\\lib\\importlib\\_bootstrap.py',
   'PYMODULE'),
  ('importlib._bootstrap_external',
   'C:\\Python38\\lib\\importlib\\_bootstrap_external.py',
   'PYMODULE'),
  ('importlib.abc', 'C:\\Python38\\lib\\importlib\\abc.py', 'PYMODULE'),
  ('importlib.machinery',
   'C:\\Python38\\lib\\importlib\\machinery.py',
   'PYMODULE'),
  ('importlib.metadata',
   'C:\\Python38\\lib\\importlib\\metadata.py',
   'PYMODULE'),
  ('importlib.util', 'C:\\Python38\\lib\\importlib\\util.py', 'PYMODULE'),
  ('inspect', 'C:\\Python38\\lib\\inspect.py', 'PYMODULE'),
  ('json', 'C:\\Python38\\lib\\json\\__init__.py', 'PYMODULE'),
  ('json.decoder', 'C:\\Python38\\lib\\json\\decoder.py', 'PYMODULE'),
  ('json.encoder', 'C:\\Python38\\lib\\json\\encoder.py', 'PYMODULE'),
  ('json.scanner', 'C:\\Python38\\lib\\json\\scanner.py', 'PYMODULE'),
  ('lark', 'C:\\Python38\\lib\\site-packages\\lark\\__init__.py', 'PYMODULE'),
  ('lark.common',
   'C:\\Python38\\lib\\site-packages\\lark\\common.py',
   'PYMODULE'),
  ('lark.exceptions',
   'C:\\Python38\\lib\\site-packages\\lark\\exceptions.py',
   'PYMODULE'),
  ('lark.grammar',
   'C:\\Python38\\lib\\site-packages\\lark\\grammar.py',
   'PYMODULE'),
  ('lark.lark', 'C:\\Python38\\lib\\site-packages\\lark\\lark.py', 'PYMODULE'),
  ('lark.lexer',
   'C:\\Python38\\lib\\site-packages\\lark\\lexer.py',
   'PYMODULE'),
  ('lark.load_grammar',
   'C:\\Python38\\lib\\site-packages\\lark\\load_grammar.py',
   'PYMODULE'),
  ('lark.parse_tree_builder',
   'C:\\Python38\\lib\\site-packages\\lark\\parse_tree_builder.py',
   'PYMODULE'),
  ('lark.parser_frontends',
   'C:\\Python38\\lib\\site-packages\\lark\\parser_frontends.py',
   'PYMODULE'),
  ('lark.parsers',
   'C:\\Python38\\lib\\site-packages\\lark\\parsers\\__init__.py',
   'PYMODULE'),
  ('lark.parsers.cyk',
   'C:\\Python38\\lib\\site-packages\\lark\\parsers\\cyk.py',
   'PYMODULE'),
  ('lark.parsers.earley',
   'C:\\Python38\\lib\\site-packages\\lark\\parsers\\earley.py',
   'PYMODULE'),
  ('lark.parsers.earley_common',
   'C:\\Python38\\lib\\site-packages\\lark\\parsers\\earley_common.py',
   'PYMODULE'),
  ('lark.parsers.earley_forest',
   'C:\\Python38\\lib\\site-packages\\lark\\parsers\\earley_forest.py',
   'PYMODULE'),
  ('lark.parsers.grammar_analysis',
   'C:\\Python38\\lib\\site-packages\\lark\\parsers\\grammar_analysis.py',
   'PYMODULE'),
  ('lark.parsers.lalr_analysis',
   'C:\\Python38\\lib\\site-packages\\lark\\parsers\\lalr_analysis.py',
   'PYMODULE'),
  ('lark.parsers.lalr_interactive_parser',
   'C:\\Python38\\lib\\site-packages\\lark\\parsers\\lalr_interactive_parser.py',
   'PYMODULE'),
  ('lark.parsers.lalr_parser',
   'C:\\Python38\\lib\\site-packages\\lark\\parsers\\lalr_parser.py',
   'PYMODULE'),
  ('lark.parsers.xearley',
   'C:\\Python38\\lib\\site-packages\\lark\\parsers\\xearley.py',
   'PYMODULE'),
  ('lark.tree', 'C:\\Python38\\lib\\site-packages\\lark\\tree.py', 'PYMODULE'),
  ('lark.utils',
   'C:\\Python38\\lib\\site-packages\\lark\\utils.py',
   'PYMODULE'),
  ('lark.visitors',
   'C:\\Python38\\lib\\site-packages\\lark\\visitors.py',
   'PYMODULE'),
  ('lifecycle_msgs',
   'C:\\dev\\ros2_humble\\Lib\\site-packages\\lifecycle_msgs\\__init__.py',
   'PYMODULE'),
  ('lifecycle_msgs.msg',
   'C:\\dev\\ros2_humble\\Lib\\site-packages\\lifecycle_msgs\\msg\\__init__.py',
   'PYMODULE'),
  ('lifecycle_msgs.msg._state',
   'C:\\dev\\ros2_humble\\Lib\\site-packages\\lifecycle_msgs\\msg\\_state.py',
   'PYMODULE'),
  ('lifecycle_msgs.msg._transition',
   'C:\\dev\\ros2_humble\\Lib\\site-packages\\lifecycle_msgs\\msg\\_transition.py',
   'PYMODULE'),
  ('lifecycle_msgs.msg._transition_description',
   'C:\\dev\\ros2_humble\\Lib\\site-packages\\lifecycle_msgs\\msg\\_transition_description.py',
   'PYMODULE'),
  ('lifecycle_msgs.msg._transition_event',
   'C:\\dev\\ros2_humble\\Lib\\site-packages\\lifecycle_msgs\\msg\\_transition_event.py',
   'PYMODULE'),
  ('lifecycle_msgs.srv',
   'C:\\dev\\ros2_humble\\Lib\\site-packages\\lifecycle_msgs\\srv\\__init__.py',
   'PYMODULE'),
  ('lifecycle_msgs.srv._change_state',
   'C:\\dev\\ros2_humble\\Lib\\site-packages\\lifecycle_msgs\\srv\\_change_state.py',
   'PYMODULE'),
  ('lifecycle_msgs.srv._get_available_states',
   'C:\\dev\\ros2_humble\\Lib\\site-packages\\lifecycle_msgs\\srv\\_get_available_states.py',
   'PYMODULE'),
  ('lifecycle_msgs.srv._get_available_transitions',
   'C:\\dev\\ros2_humble\\Lib\\site-packages\\lifecycle_msgs\\srv\\_get_available_transitions.py',
   'PYMODULE'),
  ('lifecycle_msgs.srv._get_state',
   'C:\\dev\\ros2_humble\\Lib\\site-packages\\lifecycle_msgs\\srv\\_get_state.py',
   'PYMODULE'),
  ('logging', 'C:\\Python38\\lib\\logging\\__init__.py', 'PYMODULE'),
  ('logging.handlers', 'C:\\Python38\\lib\\logging\\handlers.py', 'PYMODULE'),
  ('lzma', 'C:\\Python38\\lib\\lzma.py', 'PYMODULE'),
  ('mimetypes', 'C:\\Python38\\lib\\mimetypes.py', 'PYMODULE'),
  ('multiprocessing',
   'C:\\Python38\\lib\\multiprocessing\\__init__.py',
   'PYMODULE'),
  ('multiprocessing.connection',
   'C:\\Python38\\lib\\multiprocessing\\connection.py',
   'PYMODULE'),
  ('multiprocessing.context',
   'C:\\Python38\\lib\\multiprocessing\\context.py',
   'PYMODULE'),
  ('multiprocessing.dummy',
   'C:\\Python38\\lib\\multiprocessing\\dummy\\__init__.py',
   'PYMODULE'),
  ('multiprocessing.dummy.connection',
   'C:\\Python38\\lib\\multiprocessing\\dummy\\connection.py',
   'PYMODULE'),
  ('multiprocessing.forkserver',
   'C:\\Python38\\lib\\multiprocessing\\forkserver.py',
   'PYMODULE'),
  ('multiprocessing.heap',
   'C:\\Python38\\lib\\multiprocessing\\heap.py',
   'PYMODULE'),
  ('multiprocessing.managers',
   'C:\\Python38\\lib\\multiprocessing\\managers.py',
   'PYMODULE'),
  ('multiprocessing.pool',
   'C:\\Python38\\lib\\multiprocessing\\pool.py',
   'PYMODULE'),
  ('multiprocessing.popen_fork',
   'C:\\Python38\\lib\\multiprocessing\\popen_fork.py',
   'PYMODULE'),
  ('multiprocessing.popen_forkserver',
   'C:\\Python38\\lib\\multiprocessing\\popen_forkserver.py',
   'PYMODULE'),
  ('multiprocessing.popen_spawn_posix',
   'C:\\Python38\\lib\\multiprocessing\\popen_spawn_posix.py',
   'PYMODULE'),
  ('multiprocessing.popen_spawn_win32',
   'C:\\Python38\\lib\\multiprocessing\\popen_spawn_win32.py',
   'PYMODULE'),
  ('multiprocessing.process',
   'C:\\Python38\\lib\\multiprocessing\\process.py',
   'PYMODULE'),
  ('multiprocessing.queues',
   'C:\\Python38\\lib\\multiprocessing\\queues.py',
   'PYMODULE'),
  ('multiprocessing.reduction',
   'C:\\Python38\\lib\\multiprocessing\\reduction.py',
   'PYMODULE'),
  ('multiprocessing.resource_sharer',
   'C:\\Python38\\lib\\multiprocessing\\resource_sharer.py',
   'PYMODULE'),
  ('multiprocessing.resource_tracker',
   'C:\\Python38\\lib\\multiprocessing\\resource_tracker.py',
   'PYMODULE'),
  ('multiprocessing.shared_memory',
   'C:\\Python38\\lib\\multiprocessing\\shared_memory.py',
   'PYMODULE'),
  ('multiprocessing.sharedctypes',
   'C:\\Python38\\lib\\multiprocessing\\sharedctypes.py',
   'PYMODULE'),
  ('multiprocessing.spawn',
   'C:\\Python38\\lib\\multiprocessing\\spawn.py',
   'PYMODULE'),
  ('multiprocessing.synchronize',
   'C:\\Python38\\lib\\multiprocessing\\synchronize.py',
   'PYMODULE'),
  ('multiprocessing.util',
   'C:\\Python38\\lib\\multiprocessing\\util.py',
   'PYMODULE'),
  ('netbios',
   'C:\\Python38\\lib\\site-packages\\win32\\lib\\netbios.py',
   'PYMODULE'),
  ('netrc', 'C:\\Python38\\lib\\netrc.py', 'PYMODULE'),
  ('nturl2path', 'C:\\Python38\\lib\\nturl2path.py', 'PYMODULE'),
  ('numbers', 'C:\\Python38\\lib\\numbers.py', 'PYMODULE'),
  ('numpy', 'C:\\Python38\\lib\\site-packages\\numpy\\__init__.py', 'PYMODULE'),
  ('numpy.__config__',
   'C:\\Python38\\lib\\site-packages\\numpy\\__config__.py',
   'PYMODULE'),
  ('numpy._distributor_init',
   'C:\\Python38\\lib\\site-packages\\numpy\\_distributor_init.py',
   'PYMODULE'),
  ('numpy._globals',
   'C:\\Python38\\lib\\site-packages\\numpy\\_globals.py',
   'PYMODULE'),
  ('numpy._pytesttester',
   'C:\\Python38\\lib\\site-packages\\numpy\\_pytesttester.py',
   'PYMODULE'),
  ('numpy._typing',
   'C:\\Python38\\lib\\site-packages\\numpy\\_typing\\__init__.py',
   'PYMODULE'),
  ('numpy._typing._add_docstring',
   'C:\\Python38\\lib\\site-packages\\numpy\\_typing\\_add_docstring.py',
   'PYMODULE'),
  ('numpy._typing._array_like',
   'C:\\Python38\\lib\\site-packages\\numpy\\_typing\\_array_like.py',
   'PYMODULE'),
  ('numpy._typing._char_codes',
   'C:\\Python38\\lib\\site-packages\\numpy\\_typing\\_char_codes.py',
   'PYMODULE'),
  ('numpy._typing._dtype_like',
   'C:\\Python38\\lib\\site-packages\\numpy\\_typing\\_dtype_like.py',
   'PYMODULE'),
  ('numpy._typing._generic_alias',
   'C:\\Python38\\lib\\site-packages\\numpy\\_typing\\_generic_alias.py',
   'PYMODULE'),
  ('numpy._typing._nbit',
   'C:\\Python38\\lib\\site-packages\\numpy\\_typing\\_nbit.py',
   'PYMODULE'),
  ('numpy._typing._nested_sequence',
   'C:\\Python38\\lib\\site-packages\\numpy\\_typing\\_nested_sequence.py',
   'PYMODULE'),
  ('numpy._typing._scalars',
   'C:\\Python38\\lib\\site-packages\\numpy\\_typing\\_scalars.py',
   'PYMODULE'),
  ('numpy._typing._shape',
   'C:\\Python38\\lib\\site-packages\\numpy\\_typing\\_shape.py',
   'PYMODULE'),
  ('numpy._version',
   'C:\\Python38\\lib\\site-packages\\numpy\\_version.py',
   'PYMODULE'),
  ('numpy.array_api',
   'C:\\Python38\\lib\\site-packages\\numpy\\array_api\\__init__.py',
   'PYMODULE'),
  ('numpy.array_api._array_object',
   'C:\\Python38\\lib\\site-packages\\numpy\\array_api\\_array_object.py',
   'PYMODULE'),
  ('numpy.array_api._constants',
   'C:\\Python38\\lib\\site-packages\\numpy\\array_api\\_constants.py',
   'PYMODULE'),
  ('numpy.array_api._creation_functions',
   'C:\\Python38\\lib\\site-packages\\numpy\\array_api\\_creation_functions.py',
   'PYMODULE'),
  ('numpy.array_api._data_type_functions',
   'C:\\Python38\\lib\\site-packages\\numpy\\array_api\\_data_type_functions.py',
   'PYMODULE'),
  ('numpy.array_api._dtypes',
   'C:\\Python38\\lib\\site-packages\\numpy\\array_api\\_dtypes.py',
   'PYMODULE'),
  ('numpy.array_api._elementwise_functions',
   'C:\\Python38\\lib\\site-packages\\numpy\\array_api\\_elementwise_functions.py',
   'PYMODULE'),
  ('numpy.array_api._manipulation_functions',
   'C:\\Python38\\lib\\site-packages\\numpy\\array_api\\_manipulation_functions.py',
   'PYMODULE'),
  ('numpy.array_api._searching_functions',
   'C:\\Python38\\lib\\site-packages\\numpy\\array_api\\_searching_functions.py',
   'PYMODULE'),
  ('numpy.array_api._set_functions',
   'C:\\Python38\\lib\\site-packages\\numpy\\array_api\\_set_functions.py',
   'PYMODULE'),
  ('numpy.array_api._sorting_functions',
   'C:\\Python38\\lib\\site-packages\\numpy\\array_api\\_sorting_functions.py',
   'PYMODULE'),
  ('numpy.array_api._statistical_functions',
   'C:\\Python38\\lib\\site-packages\\numpy\\array_api\\_statistical_functions.py',
   'PYMODULE'),
  ('numpy.array_api._typing',
   'C:\\Python38\\lib\\site-packages\\numpy\\array_api\\_typing.py',
   'PYMODULE'),
  ('numpy.array_api._utility_functions',
   'C:\\Python38\\lib\\site-packages\\numpy\\array_api\\_utility_functions.py',
   'PYMODULE'),
  ('numpy.array_api.linalg',
   'C:\\Python38\\lib\\site-packages\\numpy\\array_api\\linalg.py',
   'PYMODULE'),
  ('numpy.compat',
   'C:\\Python38\\lib\\site-packages\\numpy\\compat\\__init__.py',
   'PYMODULE'),
  ('numpy.compat._inspect',
   'C:\\Python38\\lib\\site-packages\\numpy\\compat\\_inspect.py',
   'PYMODULE'),
  ('numpy.compat._pep440',
   'C:\\Python38\\lib\\site-packages\\numpy\\compat\\_pep440.py',
   'PYMODULE'),
  ('numpy.compat.py3k',
   'C:\\Python38\\lib\\site-packages\\numpy\\compat\\py3k.py',
   'PYMODULE'),
  ('numpy.core',
   'C:\\Python38\\lib\\site-packages\\numpy\\core\\__init__.py',
   'PYMODULE'),
  ('numpy.core._add_newdocs',
   'C:\\Python38\\lib\\site-packages\\numpy\\core\\_add_newdocs.py',
   'PYMODULE'),
  ('numpy.core._add_newdocs_scalars',
   'C:\\Python38\\lib\\site-packages\\numpy\\core\\_add_newdocs_scalars.py',
   'PYMODULE'),
  ('numpy.core._asarray',
   'C:\\Python38\\lib\\site-packages\\numpy\\core\\_asarray.py',
   'PYMODULE'),
  ('numpy.core._dtype',
   'C:\\Python38\\lib\\site-packages\\numpy\\core\\_dtype.py',
   'PYMODULE'),
  ('numpy.core._dtype_ctypes',
   'C:\\Python38\\lib\\site-packages\\numpy\\core\\_dtype_ctypes.py',
   'PYMODULE'),
  ('numpy.core._exceptions',
   'C:\\Python38\\lib\\site-packages\\numpy\\core\\_exceptions.py',
   'PYMODULE'),
  ('numpy.core._internal',
   'C:\\Python38\\lib\\site-packages\\numpy\\core\\_internal.py',
   'PYMODULE'),
  ('numpy.core._machar',
   'C:\\Python38\\lib\\site-packages\\numpy\\core\\_machar.py',
   'PYMODULE'),
  ('numpy.core._methods',
   'C:\\Python38\\lib\\site-packages\\numpy\\core\\_methods.py',
   'PYMODULE'),
  ('numpy.core._string_helpers',
   'C:\\Python38\\lib\\site-packages\\numpy\\core\\_string_helpers.py',
   'PYMODULE'),
  ('numpy.core._type_aliases',
   'C:\\Python38\\lib\\site-packages\\numpy\\core\\_type_aliases.py',
   'PYMODULE'),
  ('numpy.core._ufunc_config',
   'C:\\Python38\\lib\\site-packages\\numpy\\core\\_ufunc_config.py',
   'PYMODULE'),
  ('numpy.core.arrayprint',
   'C:\\Python38\\lib\\site-packages\\numpy\\core\\arrayprint.py',
   'PYMODULE'),
  ('numpy.core.defchararray',
   'C:\\Python38\\lib\\site-packages\\numpy\\core\\defchararray.py',
   'PYMODULE'),
  ('numpy.core.einsumfunc',
   'C:\\Python38\\lib\\site-packages\\numpy\\core\\einsumfunc.py',
   'PYMODULE'),
  ('numpy.core.fromnumeric',
   'C:\\Python38\\lib\\site-packages\\numpy\\core\\fromnumeric.py',
   'PYMODULE'),
  ('numpy.core.function_base',
   'C:\\Python38\\lib\\site-packages\\numpy\\core\\function_base.py',
   'PYMODULE'),
  ('numpy.core.getlimits',
   'C:\\Python38\\lib\\site-packages\\numpy\\core\\getlimits.py',
   'PYMODULE'),
  ('numpy.core.memmap',
   'C:\\Python38\\lib\\site-packages\\numpy\\core\\memmap.py',
   'PYMODULE'),
  ('numpy.core.multiarray',
   'C:\\Python38\\lib\\site-packages\\numpy\\core\\multiarray.py',
   'PYMODULE'),
  ('numpy.core.numeric',
   'C:\\Python38\\lib\\site-packages\\numpy\\core\\numeric.py',
   'PYMODULE'),
  ('numpy.core.numerictypes',
   'C:\\Python38\\lib\\site-packages\\numpy\\core\\numerictypes.py',
   'PYMODULE'),
  ('numpy.core.overrides',
   'C:\\Python38\\lib\\site-packages\\numpy\\core\\overrides.py',
   'PYMODULE'),
  ('numpy.core.records',
   'C:\\Python38\\lib\\site-packages\\numpy\\core\\records.py',
   'PYMODULE'),
  ('numpy.core.shape_base',
   'C:\\Python38\\lib\\site-packages\\numpy\\core\\shape_base.py',
   'PYMODULE'),
  ('numpy.core.umath',
   'C:\\Python38\\lib\\site-packages\\numpy\\core\\umath.py',
   'PYMODULE'),
  ('numpy.ctypeslib',
   'C:\\Python38\\lib\\site-packages\\numpy\\ctypeslib.py',
   'PYMODULE'),
  ('numpy.distutils',
   'C:\\Python38\\lib\\site-packages\\numpy\\distutils\\__init__.py',
   'PYMODULE'),
  ('numpy.distutils.cpuinfo',
   'C:\\Python38\\lib\\site-packages\\numpy\\distutils\\cpuinfo.py',
   'PYMODULE'),
  ('numpy.fft',
   'C:\\Python38\\lib\\site-packages\\numpy\\fft\\__init__.py',
   'PYMODULE'),
  ('numpy.fft._pocketfft',
   'C:\\Python38\\lib\\site-packages\\numpy\\fft\\_pocketfft.py',
   'PYMODULE'),
  ('numpy.fft.helper',
   'C:\\Python38\\lib\\site-packages\\numpy\\fft\\helper.py',
   'PYMODULE'),
  ('numpy.lib',
   'C:\\Python38\\lib\\site-packages\\numpy\\lib\\__init__.py',
   'PYMODULE'),
  ('numpy.lib._datasource',
   'C:\\Python38\\lib\\site-packages\\numpy\\lib\\_datasource.py',
   'PYMODULE'),
  ('numpy.lib._iotools',
   'C:\\Python38\\lib\\site-packages\\numpy\\lib\\_iotools.py',
   'PYMODULE'),
  ('numpy.lib._version',
   'C:\\Python38\\lib\\site-packages\\numpy\\lib\\_version.py',
   'PYMODULE'),
  ('numpy.lib.arraypad',
   'C:\\Python38\\lib\\site-packages\\numpy\\lib\\arraypad.py',
   'PYMODULE'),
  ('numpy.lib.arraysetops',
   'C:\\Python38\\lib\\site-packages\\numpy\\lib\\arraysetops.py',
   'PYMODULE'),
  ('numpy.lib.arrayterator',
   'C:\\Python38\\lib\\site-packages\\numpy\\lib\\arrayterator.py',
   'PYMODULE'),
  ('numpy.lib.format',
   'C:\\Python38\\lib\\site-packages\\numpy\\lib\\format.py',
   'PYMODULE'),
  ('numpy.lib.function_base',
   'C:\\Python38\\lib\\site-packages\\numpy\\lib\\function_base.py',
   'PYMODULE'),
  ('numpy.lib.histograms',
   'C:\\Python38\\lib\\site-packages\\numpy\\lib\\histograms.py',
   'PYMODULE'),
  ('numpy.lib.index_tricks',
   'C:\\Python38\\lib\\site-packages\\numpy\\lib\\index_tricks.py',
   'PYMODULE'),
  ('numpy.lib.mixins',
   'C:\\Python38\\lib\\site-packages\\numpy\\lib\\mixins.py',
   'PYMODULE'),
  ('numpy.lib.nanfunctions',
   'C:\\Python38\\lib\\site-packages\\numpy\\lib\\nanfunctions.py',
   'PYMODULE'),
  ('numpy.lib.npyio',
   'C:\\Python38\\lib\\site-packages\\numpy\\lib\\npyio.py',
   'PYMODULE'),
  ('numpy.lib.polynomial',
   'C:\\Python38\\lib\\site-packages\\numpy\\lib\\polynomial.py',
   'PYMODULE'),
  ('numpy.lib.scimath',
   'C:\\Python38\\lib\\site-packages\\numpy\\lib\\scimath.py',
   'PYMODULE'),
  ('numpy.lib.shape_base',
   'C:\\Python38\\lib\\site-packages\\numpy\\lib\\shape_base.py',
   'PYMODULE'),
  ('numpy.lib.stride_tricks',
   'C:\\Python38\\lib\\site-packages\\numpy\\lib\\stride_tricks.py',
   'PYMODULE'),
  ('numpy.lib.twodim_base',
   'C:\\Python38\\lib\\site-packages\\numpy\\lib\\twodim_base.py',
   'PYMODULE'),
  ('numpy.lib.type_check',
   'C:\\Python38\\lib\\site-packages\\numpy\\lib\\type_check.py',
   'PYMODULE'),
  ('numpy.lib.ufunclike',
   'C:\\Python38\\lib\\site-packages\\numpy\\lib\\ufunclike.py',
   'PYMODULE'),
  ('numpy.lib.utils',
   'C:\\Python38\\lib\\site-packages\\numpy\\lib\\utils.py',
   'PYMODULE'),
  ('numpy.linalg',
   'C:\\Python38\\lib\\site-packages\\numpy\\linalg\\__init__.py',
   'PYMODULE'),
  ('numpy.linalg.linalg',
   'C:\\Python38\\lib\\site-packages\\numpy\\linalg\\linalg.py',
   'PYMODULE'),
  ('numpy.ma',
   'C:\\Python38\\lib\\site-packages\\numpy\\ma\\__init__.py',
   'PYMODULE'),
  ('numpy.ma.core',
   'C:\\Python38\\lib\\site-packages\\numpy\\ma\\core.py',
   'PYMODULE'),
  ('numpy.ma.extras',
   'C:\\Python38\\lib\\site-packages\\numpy\\ma\\extras.py',
   'PYMODULE'),
  ('numpy.ma.mrecords',
   'C:\\Python38\\lib\\site-packages\\numpy\\ma\\mrecords.py',
   'PYMODULE'),
  ('numpy.matrixlib',
   'C:\\Python38\\lib\\site-packages\\numpy\\matrixlib\\__init__.py',
   'PYMODULE'),
  ('numpy.matrixlib.defmatrix',
   'C:\\Python38\\lib\\site-packages\\numpy\\matrixlib\\defmatrix.py',
   'PYMODULE'),
  ('numpy.polynomial',
   'C:\\Python38\\lib\\site-packages\\numpy\\polynomial\\__init__.py',
   'PYMODULE'),
  ('numpy.polynomial._polybase',
   'C:\\Python38\\lib\\site-packages\\numpy\\polynomial\\_polybase.py',
   'PYMODULE'),
  ('numpy.polynomial.chebyshev',
   'C:\\Python38\\lib\\site-packages\\numpy\\polynomial\\chebyshev.py',
   'PYMODULE'),
  ('numpy.polynomial.hermite',
   'C:\\Python38\\lib\\site-packages\\numpy\\polynomial\\hermite.py',
   'PYMODULE'),
  ('numpy.polynomial.hermite_e',
   'C:\\Python38\\lib\\site-packages\\numpy\\polynomial\\hermite_e.py',
   'PYMODULE'),
  ('numpy.polynomial.laguerre',
   'C:\\Python38\\lib\\site-packages\\numpy\\polynomial\\laguerre.py',
   'PYMODULE'),
  ('numpy.polynomial.legendre',
   'C:\\Python38\\lib\\site-packages\\numpy\\polynomial\\legendre.py',
   'PYMODULE'),
  ('numpy.polynomial.polynomial',
   'C:\\Python38\\lib\\site-packages\\numpy\\polynomial\\polynomial.py',
   'PYMODULE'),
  ('numpy.polynomial.polyutils',
   'C:\\Python38\\lib\\site-packages\\numpy\\polynomial\\polyutils.py',
   'PYMODULE'),
  ('numpy.random',
   'C:\\Python38\\lib\\site-packages\\numpy\\random\\__init__.py',
   'PYMODULE'),
  ('numpy.random._pickle',
   'C:\\Python38\\lib\\site-packages\\numpy\\random\\_pickle.py',
   'PYMODULE'),
  ('numpy.testing',
   'C:\\Python38\\lib\\site-packages\\numpy\\testing\\__init__.py',
   'PYMODULE'),
  ('numpy.testing._private',
   'C:\\Python38\\lib\\site-packages\\numpy\\testing\\_private\\__init__.py',
   'PYMODULE'),
  ('numpy.testing._private.decorators',
   'C:\\Python38\\lib\\site-packages\\numpy\\testing\\_private\\decorators.py',
   'PYMODULE'),
  ('numpy.testing._private.extbuild',
   'C:\\Python38\\lib\\site-packages\\numpy\\testing\\_private\\extbuild.py',
   'PYMODULE'),
  ('numpy.testing._private.noseclasses',
   'C:\\Python38\\lib\\site-packages\\numpy\\testing\\_private\\noseclasses.py',
   'PYMODULE'),
  ('numpy.testing._private.nosetester',
   'C:\\Python38\\lib\\site-packages\\numpy\\testing\\_private\\nosetester.py',
   'PYMODULE'),
  ('numpy.testing._private.parameterized',
   'C:\\Python38\\lib\\site-packages\\numpy\\testing\\_private\\parameterized.py',
   'PYMODULE'),
  ('numpy.testing._private.utils',
   'C:\\Python38\\lib\\site-packages\\numpy\\testing\\_private\\utils.py',
   'PYMODULE'),
  ('numpy.typing',
   'C:\\Python38\\lib\\site-packages\\numpy\\typing\\__init__.py',
   'PYMODULE'),
  ('numpy.version',
   'C:\\Python38\\lib\\site-packages\\numpy\\version.py',
   'PYMODULE'),
  ('opcode', 'C:\\Python38\\lib\\opcode.py', 'PYMODULE'),
  ('optparse', 'C:\\Python38\\lib\\optparse.py', 'PYMODULE'),
  ('pathlib', 'C:\\Python38\\lib\\pathlib.py', 'PYMODULE'),
  ('pdb', 'C:\\Python38\\lib\\pdb.py', 'PYMODULE'),
  ('pickle', 'C:\\Python38\\lib\\pickle.py', 'PYMODULE'),
  ('pkgutil', 'C:\\Python38\\lib\\pkgutil.py', 'PYMODULE'),
  ('platform', 'C:\\Python38\\lib\\platform.py', 'PYMODULE'),
  ('pprint', 'C:\\Python38\\lib\\pprint.py', 'PYMODULE'),
  ('psutil',
   'C:\\Python38\\lib\\site-packages\\psutil\\__init__.py',
   'PYMODULE'),
  ('psutil._common',
   'C:\\Python38\\lib\\site-packages\\psutil\\_common.py',
   'PYMODULE'),
  ('psutil._compat',
   'C:\\Python38\\lib\\site-packages\\psutil\\_compat.py',
   'PYMODULE'),
  ('psutil._pswindows',
   'C:\\Python38\\lib\\site-packages\\psutil\\_pswindows.py',
   'PYMODULE'),
  ('py_compile', 'C:\\Python38\\lib\\py_compile.py', 'PYMODULE'),
  ('pydoc', 'C:\\Python38\\lib\\pydoc.py', 'PYMODULE'),
  ('pydoc_data', 'C:\\Python38\\lib\\pydoc_data\\__init__.py', 'PYMODULE'),
  ('pydoc_data.topics', 'C:\\Python38\\lib\\pydoc_data\\topics.py', 'PYMODULE'),
  ('pydot', 'C:\\Python38\\lib\\site-packages\\pydot.py', 'PYMODULE'),
  ('pyparsing', 'C:\\Python38\\lib\\site-packages\\pyparsing.py', 'PYMODULE'),
  ('pyreadline3',
   'C:\\Python38\\lib\\site-packages\\pyreadline3\\__init__.py',
   'PYMODULE'),
  ('pyreadline3.clipboard',
   'C:\\Python38\\lib\\site-packages\\pyreadline3\\clipboard\\__init__.py',
   'PYMODULE'),
  ('pyreadline3.clipboard.ironpython_clipboard',
   'C:\\Python38\\lib\\site-packages\\pyreadline3\\clipboard\\ironpython_clipboard.py',
   'PYMODULE'),
  ('pyreadline3.clipboard.no_clipboard',
   'C:\\Python38\\lib\\site-packages\\pyreadline3\\clipboard\\no_clipboard.py',
   'PYMODULE'),
  ('pyreadline3.clipboard.win32_clipboard',
   'C:\\Python38\\lib\\site-packages\\pyreadline3\\clipboard\\win32_clipboard.py',
   'PYMODULE'),
  ('pyreadline3.console',
   'C:\\Python38\\lib\\site-packages\\pyreadline3\\console\\__init__.py',
   'PYMODULE'),
  ('pyreadline3.console.ansi',
   'C:\\Python38\\lib\\site-packages\\pyreadline3\\console\\ansi.py',
   'PYMODULE'),
  ('pyreadline3.console.console',
   'C:\\Python38\\lib\\site-packages\\pyreadline3\\console\\console.py',
   'PYMODULE'),
  ('pyreadline3.console.event',
   'C:\\Python38\\lib\\site-packages\\pyreadline3\\console\\event.py',
   'PYMODULE'),
  ('pyreadline3.console.ironpython_console',
   'C:\\Python38\\lib\\site-packages\\pyreadline3\\console\\ironpython_console.py',
   'PYMODULE'),
  ('pyreadline3.error',
   'C:\\Python38\\lib\\site-packages\\pyreadline3\\error.py',
   'PYMODULE'),
  ('pyreadline3.keysyms',
   'C:\\Python38\\lib\\site-packages\\pyreadline3\\keysyms\\__init__.py',
   'PYMODULE'),
  ('pyreadline3.keysyms.common',
   'C:\\Python38\\lib\\site-packages\\pyreadline3\\keysyms\\common.py',
   'PYMODULE'),
  ('pyreadline3.keysyms.ironpython_keysyms',
   'C:\\Python38\\lib\\site-packages\\pyreadline3\\keysyms\\ironpython_keysyms.py',
   'PYMODULE'),
  ('pyreadline3.keysyms.keysyms',
   'C:\\Python38\\lib\\site-packages\\pyreadline3\\keysyms\\keysyms.py',
   'PYMODULE'),
  ('pyreadline3.keysyms.winconstants',
   'C:\\Python38\\lib\\site-packages\\pyreadline3\\keysyms\\winconstants.py',
   'PYMODULE'),
  ('pyreadline3.lineeditor',
   'C:\\Python38\\lib\\site-packages\\pyreadline3\\lineeditor\\__init__.py',
   'PYMODULE'),
  ('pyreadline3.lineeditor.history',
   'C:\\Python38\\lib\\site-packages\\pyreadline3\\lineeditor\\history.py',
   'PYMODULE'),
  ('pyreadline3.lineeditor.lineobj',
   'C:\\Python38\\lib\\site-packages\\pyreadline3\\lineeditor\\lineobj.py',
   'PYMODULE'),
  ('pyreadline3.lineeditor.wordmatcher',
   'C:\\Python38\\lib\\site-packages\\pyreadline3\\lineeditor\\wordmatcher.py',
   'PYMODULE'),
  ('pyreadline3.logger',
   'C:\\Python38\\lib\\site-packages\\pyreadline3\\logger.py',
   'PYMODULE'),
  ('pyreadline3.modes',
   'C:\\Python38\\lib\\site-packages\\pyreadline3\\modes\\__init__.py',
   'PYMODULE'),
  ('pyreadline3.modes.basemode',
   'C:\\Python38\\lib\\site-packages\\pyreadline3\\modes\\basemode.py',
   'PYMODULE'),
  ('pyreadline3.modes.emacs',
   'C:\\Python38\\lib\\site-packages\\pyreadline3\\modes\\emacs.py',
   'PYMODULE'),
  ('pyreadline3.modes.notemacs',
   'C:\\Python38\\lib\\site-packages\\pyreadline3\\modes\\notemacs.py',
   'PYMODULE'),
  ('pyreadline3.modes.vi',
   'C:\\Python38\\lib\\site-packages\\pyreadline3\\modes\\vi.py',
   'PYMODULE'),
  ('pyreadline3.py3k_compat',
   'C:\\Python38\\lib\\site-packages\\pyreadline3\\py3k_compat.py',
   'PYMODULE'),
  ('pyreadline3.release',
   'C:\\Python38\\lib\\site-packages\\pyreadline3\\release.py',
   'PYMODULE'),
  ('pyreadline3.rlmain',
   'C:\\Python38\\lib\\site-packages\\pyreadline3\\rlmain.py',
   'PYMODULE'),
  ('pyreadline3.unicode_helper',
   'C:\\Python38\\lib\\site-packages\\pyreadline3\\unicode_helper.py',
   'PYMODULE'),
  ('queue', 'C:\\Python38\\lib\\queue.py', 'PYMODULE'),
  ('quopri', 'C:\\Python38\\lib\\quopri.py', 'PYMODULE'),
  ('random', 'C:\\Python38\\lib\\random.py', 'PYMODULE'),
  ('rcl_interfaces',
   'C:\\dev\\ros2_humble\\Lib\\site-packages\\rcl_interfaces\\__init__.py',
   'PYMODULE'),
  ('rcl_interfaces.msg',
   'C:\\dev\\ros2_humble\\Lib\\site-packages\\rcl_interfaces\\msg\\__init__.py',
   'PYMODULE'),
  ('rcl_interfaces.msg._floating_point_range',
   'C:\\dev\\ros2_humble\\Lib\\site-packages\\rcl_interfaces\\msg\\_floating_point_range.py',
   'PYMODULE'),
  ('rcl_interfaces.msg._integer_range',
   'C:\\dev\\ros2_humble\\Lib\\site-packages\\rcl_interfaces\\msg\\_integer_range.py',
   'PYMODULE'),
  ('rcl_interfaces.msg._list_parameters_result',
   'C:\\dev\\ros2_humble\\Lib\\site-packages\\rcl_interfaces\\msg\\_list_parameters_result.py',
   'PYMODULE'),
  ('rcl_interfaces.msg._log',
   'C:\\dev\\ros2_humble\\Lib\\site-packages\\rcl_interfaces\\msg\\_log.py',
   'PYMODULE'),
  ('rcl_interfaces.msg._parameter',
   'C:\\dev\\ros2_humble\\Lib\\site-packages\\rcl_interfaces\\msg\\_parameter.py',
   'PYMODULE'),
  ('rcl_interfaces.msg._parameter_descriptor',
   'C:\\dev\\ros2_humble\\Lib\\site-packages\\rcl_interfaces\\msg\\_parameter_descriptor.py',
   'PYMODULE'),
  ('rcl_interfaces.msg._parameter_event',
   'C:\\dev\\ros2_humble\\Lib\\site-packages\\rcl_interfaces\\msg\\_parameter_event.py',
   'PYMODULE'),
  ('rcl_interfaces.msg._parameter_event_descriptors',
   'C:\\dev\\ros2_humble\\Lib\\site-packages\\rcl_interfaces\\msg\\_parameter_event_descriptors.py',
   'PYMODULE'),
  ('rcl_interfaces.msg._parameter_type',
   'C:\\dev\\ros2_humble\\Lib\\site-packages\\rcl_interfaces\\msg\\_parameter_type.py',
   'PYMODULE'),
  ('rcl_interfaces.msg._parameter_value',
   'C:\\dev\\ros2_humble\\Lib\\site-packages\\rcl_interfaces\\msg\\_parameter_value.py',
   'PYMODULE'),
  ('rcl_interfaces.msg._set_parameters_result',
   'C:\\dev\\ros2_humble\\Lib\\site-packages\\rcl_interfaces\\msg\\_set_parameters_result.py',
   'PYMODULE'),
  ('rcl_interfaces.srv',
   'C:\\dev\\ros2_humble\\Lib\\site-packages\\rcl_interfaces\\srv\\__init__.py',
   'PYMODULE'),
  ('rcl_interfaces.srv._describe_parameters',
   'C:\\dev\\ros2_humble\\Lib\\site-packages\\rcl_interfaces\\srv\\_describe_parameters.py',
   'PYMODULE'),
  ('rcl_interfaces.srv._get_parameter_types',
   'C:\\dev\\ros2_humble\\Lib\\site-packages\\rcl_interfaces\\srv\\_get_parameter_types.py',
   'PYMODULE'),
  ('rcl_interfaces.srv._get_parameters',
   'C:\\dev\\ros2_humble\\Lib\\site-packages\\rcl_interfaces\\srv\\_get_parameters.py',
   'PYMODULE'),
  ('rcl_interfaces.srv._list_parameters',
   'C:\\dev\\ros2_humble\\Lib\\site-packages\\rcl_interfaces\\srv\\_list_parameters.py',
   'PYMODULE'),
  ('rcl_interfaces.srv._set_parameters',
   'C:\\dev\\ros2_humble\\Lib\\site-packages\\rcl_interfaces\\srv\\_set_parameters.py',
   'PYMODULE'),
  ('rcl_interfaces.srv._set_parameters_atomically',
   'C:\\dev\\ros2_humble\\Lib\\site-packages\\rcl_interfaces\\srv\\_set_parameters_atomically.py',
   'PYMODULE'),
  ('rclpy',
   'C:\\dev\\ros2_humble\\Lib\\site-packages\\rclpy\\__init__.py',
   'PYMODULE'),
  ('rclpy.action',
   'C:\\dev\\ros2_humble\\Lib\\site-packages\\rclpy\\action\\__init__.py',
   'PYMODULE'),
  ('rclpy.action.client',
   'C:\\dev\\ros2_humble\\Lib\\site-packages\\rclpy\\action\\client.py',
   'PYMODULE'),
  ('rclpy.action.graph',
   'C:\\dev\\ros2_humble\\Lib\\site-packages\\rclpy\\action\\graph.py',
   'PYMODULE'),
  ('rclpy.action.server',
   'C:\\dev\\ros2_humble\\Lib\\site-packages\\rclpy\\action\\server.py',
   'PYMODULE'),
  ('rclpy.callback_groups',
   'C:\\dev\\ros2_humble\\Lib\\site-packages\\rclpy\\callback_groups.py',
   'PYMODULE'),
  ('rclpy.client',
   'C:\\dev\\ros2_humble\\Lib\\site-packages\\rclpy\\client.py',
   'PYMODULE'),
  ('rclpy.clock',
   'C:\\dev\\ros2_humble\\Lib\\site-packages\\rclpy\\clock.py',
   'PYMODULE'),
  ('rclpy.constants',
   'C:\\dev\\ros2_humble\\Lib\\site-packages\\rclpy\\constants.py',
   'PYMODULE'),
  ('rclpy.context',
   'C:\\dev\\ros2_humble\\Lib\\site-packages\\rclpy\\context.py',
   'PYMODULE'),
  ('rclpy.duration',
   'C:\\dev\\ros2_humble\\Lib\\site-packages\\rclpy\\duration.py',
   'PYMODULE'),
  ('rclpy.exceptions',
   'C:\\dev\\ros2_humble\\Lib\\site-packages\\rclpy\\exceptions.py',
   'PYMODULE'),
  ('rclpy.executors',
   'C:\\dev\\ros2_humble\\Lib\\site-packages\\rclpy\\executors.py',
   'PYMODULE'),
  ('rclpy.expand_topic_name',
   'C:\\dev\\ros2_humble\\Lib\\site-packages\\rclpy\\expand_topic_name.py',
   'PYMODULE'),
  ('rclpy.guard_condition',
   'C:\\dev\\ros2_humble\\Lib\\site-packages\\rclpy\\guard_condition.py',
   'PYMODULE'),
  ('rclpy.impl',
   'C:\\dev\\ros2_humble\\Lib\\site-packages\\rclpy\\impl\\__init__.py',
   'PYMODULE'),
  ('rclpy.impl.implementation_singleton',
   'C:\\dev\\ros2_humble\\Lib\\site-packages\\rclpy\\impl\\implementation_singleton.py',
   'PYMODULE'),
  ('rclpy.impl.logging_severity',
   'C:\\dev\\ros2_humble\\Lib\\site-packages\\rclpy\\impl\\logging_severity.py',
   'PYMODULE'),
  ('rclpy.impl.rcutils_logger',
   'C:\\dev\\ros2_humble\\Lib\\site-packages\\rclpy\\impl\\rcutils_logger.py',
   'PYMODULE'),
  ('rclpy.lifecycle',
   'C:\\dev\\ros2_humble\\Lib\\site-packages\\rclpy\\lifecycle\\__init__.py',
   'PYMODULE'),
  ('rclpy.lifecycle.managed_entity',
   'C:\\dev\\ros2_humble\\Lib\\site-packages\\rclpy\\lifecycle\\managed_entity.py',
   'PYMODULE'),
  ('rclpy.lifecycle.node',
   'C:\\dev\\ros2_humble\\Lib\\site-packages\\rclpy\\lifecycle\\node.py',
   'PYMODULE'),
  ('rclpy.lifecycle.publisher',
   'C:\\dev\\ros2_humble\\Lib\\site-packages\\rclpy\\lifecycle\\publisher.py',
   'PYMODULE'),
  ('rclpy.logging',
   'C:\\dev\\ros2_humble\\Lib\\site-packages\\rclpy\\logging.py',
   'PYMODULE'),
  ('rclpy.node',
   'C:\\dev\\ros2_humble\\Lib\\site-packages\\rclpy\\node.py',
   'PYMODULE'),
  ('rclpy.parameter',
   'C:\\dev\\ros2_humble\\Lib\\site-packages\\rclpy\\parameter.py',
   'PYMODULE'),
  ('rclpy.parameter_service',
   'C:\\dev\\ros2_humble\\Lib\\site-packages\\rclpy\\parameter_service.py',
   'PYMODULE'),
  ('rclpy.publisher',
   'C:\\dev\\ros2_humble\\Lib\\site-packages\\rclpy\\publisher.py',
   'PYMODULE'),
  ('rclpy.qos',
   'C:\\dev\\ros2_humble\\Lib\\site-packages\\rclpy\\qos.py',
   'PYMODULE'),
  ('rclpy.qos_event',
   'C:\\dev\\ros2_humble\\Lib\\site-packages\\rclpy\\qos_event.py',
   'PYMODULE'),
  ('rclpy.qos_overriding_options',
   'C:\\dev\\ros2_humble\\Lib\\site-packages\\rclpy\\qos_overriding_options.py',
   'PYMODULE'),
  ('rclpy.serialization',
   'C:\\dev\\ros2_humble\\Lib\\site-packages\\rclpy\\serialization.py',
   'PYMODULE'),
  ('rclpy.service',
   'C:\\dev\\ros2_humble\\Lib\\site-packages\\rclpy\\service.py',
   'PYMODULE'),
  ('rclpy.signals',
   'C:\\dev\\ros2_humble\\Lib\\site-packages\\rclpy\\signals.py',
   'PYMODULE'),
  ('rclpy.subscription',
   'C:\\dev\\ros2_humble\\Lib\\site-packages\\rclpy\\subscription.py',
   'PYMODULE'),
  ('rclpy.task',
   'C:\\dev\\ros2_humble\\Lib\\site-packages\\rclpy\\task.py',
   'PYMODULE'),
  ('rclpy.time',
   'C:\\dev\\ros2_humble\\Lib\\site-packages\\rclpy\\time.py',
   'PYMODULE'),
  ('rclpy.time_source',
   'C:\\dev\\ros2_humble\\Lib\\site-packages\\rclpy\\time_source.py',
   'PYMODULE'),
  ('rclpy.timer',
   'C:\\dev\\ros2_humble\\Lib\\site-packages\\rclpy\\timer.py',
   'PYMODULE'),
  ('rclpy.topic_endpoint_info',
   'C:\\dev\\ros2_humble\\Lib\\site-packages\\rclpy\\topic_endpoint_info.py',
   'PYMODULE'),
  ('rclpy.topic_or_service_is_hidden',
   'C:\\dev\\ros2_humble\\Lib\\site-packages\\rclpy\\topic_or_service_is_hidden.py',
   'PYMODULE'),
  ('rclpy.type_support',
   'C:\\dev\\ros2_humble\\Lib\\site-packages\\rclpy\\type_support.py',
   'PYMODULE'),
  ('rclpy.utilities',
   'C:\\dev\\ros2_humble\\Lib\\site-packages\\rclpy\\utilities.py',
   'PYMODULE'),
  ('rclpy.validate_full_topic_name',
   'C:\\dev\\ros2_humble\\Lib\\site-packages\\rclpy\\validate_full_topic_name.py',
   'PYMODULE'),
  ('rclpy.validate_namespace',
   'C:\\dev\\ros2_humble\\Lib\\site-packages\\rclpy\\validate_namespace.py',
   'PYMODULE'),
  ('rclpy.validate_node_name',
   'C:\\dev\\ros2_humble\\Lib\\site-packages\\rclpy\\validate_node_name.py',
   'PYMODULE'),
  ('rclpy.validate_parameter_name',
   'C:\\dev\\ros2_humble\\Lib\\site-packages\\rclpy\\validate_parameter_name.py',
   'PYMODULE'),
  ('rclpy.validate_topic_name',
   'C:\\dev\\ros2_humble\\Lib\\site-packages\\rclpy\\validate_topic_name.py',
   'PYMODULE'),
  ('rclpy.waitable',
   'C:\\dev\\ros2_humble\\Lib\\site-packages\\rclpy\\waitable.py',
   'PYMODULE'),
  ('readline', 'C:\\Python38\\lib\\site-packages\\readline.py', 'PYMODULE'),
  ('regex', 'C:\\Python38\\lib\\site-packages\\regex\\__init__.py', 'PYMODULE'),
  ('regex._regex_core',
   'C:\\Python38\\lib\\site-packages\\regex\\_regex_core.py',
   'PYMODULE'),
  ('regex.regex',
   'C:\\Python38\\lib\\site-packages\\regex\\regex.py',
   'PYMODULE'),
  ('resource', '-', 'PYMODULE'),
  ('rosgraph_msgs',
   'C:\\dev\\ros2_humble\\Lib\\site-packages\\rosgraph_msgs\\__init__.py',
   'PYMODULE'),
  ('rosgraph_msgs.msg',
   'C:\\dev\\ros2_humble\\Lib\\site-packages\\rosgraph_msgs\\msg\\__init__.py',
   'PYMODULE'),
  ('rosgraph_msgs.msg._clock',
   'C:\\dev\\ros2_humble\\Lib\\site-packages\\rosgraph_msgs\\msg\\_clock.py',
   'PYMODULE'),
  ('rosidl_cmake',
   'C:\\dev\\ros2_humble\\Lib\\site-packages\\rosidl_cmake\\__init__.py',
   'PYMODULE'),
  ('rosidl_generator_py',
   'C:\\dev\\ros2_humble\\Lib\\site-packages\\rosidl_generator_py\\__init__.py',
   'PYMODULE'),
  ('rosidl_generator_py.generate_py_impl',
   'C:\\dev\\ros2_humble\\Lib\\site-packages\\rosidl_generator_py\\generate_py_impl.py',
   'PYMODULE'),
  ('rosidl_generator_py.import_type_support_impl',
   'C:\\dev\\ros2_humble\\Lib\\site-packages\\rosidl_generator_py\\import_type_support_impl.py',
   'PYMODULE'),
  ('rosidl_parser',
   'C:\\dev\\ros2_humble\\Lib\\site-packages\\rosidl_parser\\__init__.py',
   'PYMODULE'),
  ('rosidl_parser.definition',
   'C:\\dev\\ros2_humble\\Lib\\site-packages\\rosidl_parser\\definition.py',
   'PYMODULE'),
  ('rosidl_parser.parser',
   'C:\\dev\\ros2_humble\\Lib\\site-packages\\rosidl_parser\\parser.py',
   'PYMODULE'),
  ('rpyutils',
   'C:\\dev\\ros2_humble\\Lib\\site-packages\\rpyutils\\__init__.py',
   'PYMODULE'),
  ('rpyutils.add_dll_directories',
   'C:\\dev\\ros2_humble\\Lib\\site-packages\\rpyutils\\add_dll_directories.py',
   'PYMODULE'),
  ('rpyutils.import_c_library',
   'C:\\dev\\ros2_humble\\Lib\\site-packages\\rpyutils\\import_c_library.py',
   'PYMODULE'),
  ('runpy', 'C:\\Python38\\lib\\runpy.py', 'PYMODULE'),
  ('secrets', 'C:\\Python38\\lib\\secrets.py', 'PYMODULE'),
  ('selectors', 'C:\\Python38\\lib\\selectors.py', 'PYMODULE'),
  ('shlex', 'C:\\Python38\\lib\\shlex.py', 'PYMODULE'),
  ('shutil', 'C:\\Python38\\lib\\shutil.py', 'PYMODULE'),
  ('signal', 'C:\\Python38\\lib\\signal.py', 'PYMODULE'),
  ('smtplib', 'C:\\Python38\\lib\\smtplib.py', 'PYMODULE'),
  ('socket', 'C:\\Python38\\lib\\socket.py', 'PYMODULE'),
  ('socketserver', 'C:\\Python38\\lib\\socketserver.py', 'PYMODULE'),
  ('ssl', 'C:\\Python38\\lib\\ssl.py', 'PYMODULE'),
  ('std_msgs',
   'C:\\dev\\ros2_humble\\Lib\\site-packages\\std_msgs\\__init__.py',
   'PYMODULE'),
  ('std_msgs.msg',
   'C:\\dev\\ros2_humble\\Lib\\site-packages\\std_msgs\\msg\\__init__.py',
   'PYMODULE'),
  ('std_msgs.msg._bool',
   'C:\\dev\\ros2_humble\\Lib\\site-packages\\std_msgs\\msg\\_bool.py',
   'PYMODULE'),
  ('std_msgs.msg._byte',
   'C:\\dev\\ros2_humble\\Lib\\site-packages\\std_msgs\\msg\\_byte.py',
   'PYMODULE'),
  ('std_msgs.msg._byte_multi_array',
   'C:\\dev\\ros2_humble\\Lib\\site-packages\\std_msgs\\msg\\_byte_multi_array.py',
   'PYMODULE'),
  ('std_msgs.msg._char',
   'C:\\dev\\ros2_humble\\Lib\\site-packages\\std_msgs\\msg\\_char.py',
   'PYMODULE'),
  ('std_msgs.msg._color_rgba',
   'C:\\dev\\ros2_humble\\Lib\\site-packages\\std_msgs\\msg\\_color_rgba.py',
   'PYMODULE'),
  ('std_msgs.msg._empty',
   'C:\\dev\\ros2_humble\\Lib\\site-packages\\std_msgs\\msg\\_empty.py',
   'PYMODULE'),
  ('std_msgs.msg._float32',
   'C:\\dev\\ros2_humble\\Lib\\site-packages\\std_msgs\\msg\\_float32.py',
   'PYMODULE'),
  ('std_msgs.msg._float32_multi_array',
   'C:\\dev\\ros2_humble\\Lib\\site-packages\\std_msgs\\msg\\_float32_multi_array.py',
   'PYMODULE'),
  ('std_msgs.msg._float64',
   'C:\\dev\\ros2_humble\\Lib\\site-packages\\std_msgs\\msg\\_float64.py',
   'PYMODULE'),
  ('std_msgs.msg._float64_multi_array',
   'C:\\dev\\ros2_humble\\Lib\\site-packages\\std_msgs\\msg\\_float64_multi_array.py',
   'PYMODULE'),
  ('std_msgs.msg._header',
   'C:\\dev\\ros2_humble\\Lib\\site-packages\\std_msgs\\msg\\_header.py',
   'PYMODULE'),
  ('std_msgs.msg._int16',
   'C:\\dev\\ros2_humble\\Lib\\site-packages\\std_msgs\\msg\\_int16.py',
   'PYMODULE'),
  ('std_msgs.msg._int16_multi_array',
   'C:\\dev\\ros2_humble\\Lib\\site-packages\\std_msgs\\msg\\_int16_multi_array.py',
   'PYMODULE'),
  ('std_msgs.msg._int32',
   'C:\\dev\\ros2_humble\\Lib\\site-packages\\std_msgs\\msg\\_int32.py',
   'PYMODULE'),
  ('std_msgs.msg._int32_multi_array',
   'C:\\dev\\ros2_humble\\Lib\\site-packages\\std_msgs\\msg\\_int32_multi_array.py',
   'PYMODULE'),
  ('std_msgs.msg._int64',
   'C:\\dev\\ros2_humble\\Lib\\site-packages\\std_msgs\\msg\\_int64.py',
   'PYMODULE'),
  ('std_msgs.msg._int64_multi_array',
   'C:\\dev\\ros2_humble\\Lib\\site-packages\\std_msgs\\msg\\_int64_multi_array.py',
   'PYMODULE'),
  ('std_msgs.msg._int8',
   'C:\\dev\\ros2_humble\\Lib\\site-packages\\std_msgs\\msg\\_int8.py',
   'PYMODULE'),
  ('std_msgs.msg._int8_multi_array',
   'C:\\dev\\ros2_humble\\Lib\\site-packages\\std_msgs\\msg\\_int8_multi_array.py',
   'PYMODULE'),
  ('std_msgs.msg._multi_array_dimension',
   'C:\\dev\\ros2_humble\\Lib\\site-packages\\std_msgs\\msg\\_multi_array_dimension.py',
   'PYMODULE'),
  ('std_msgs.msg._multi_array_layout',
   'C:\\dev\\ros2_humble\\Lib\\site-packages\\std_msgs\\msg\\_multi_array_layout.py',
   'PYMODULE'),
  ('std_msgs.msg._string',
   'C:\\dev\\ros2_humble\\Lib\\site-packages\\std_msgs\\msg\\_string.py',
   'PYMODULE'),
  ('std_msgs.msg._u_int16',
   'C:\\dev\\ros2_humble\\Lib\\site-packages\\std_msgs\\msg\\_u_int16.py',
   'PYMODULE'),
  ('std_msgs.msg._u_int16_multi_array',
   'C:\\dev\\ros2_humble\\Lib\\site-packages\\std_msgs\\msg\\_u_int16_multi_array.py',
   'PYMODULE'),
  ('std_msgs.msg._u_int32',
   'C:\\dev\\ros2_humble\\Lib\\site-packages\\std_msgs\\msg\\_u_int32.py',
   'PYMODULE'),
  ('std_msgs.msg._u_int32_multi_array',
   'C:\\dev\\ros2_humble\\Lib\\site-packages\\std_msgs\\msg\\_u_int32_multi_array.py',
   'PYMODULE'),
  ('std_msgs.msg._u_int64',
   'C:\\dev\\ros2_humble\\Lib\\site-packages\\std_msgs\\msg\\_u_int64.py',
   'PYMODULE'),
  ('std_msgs.msg._u_int64_multi_array',
   'C:\\dev\\ros2_humble\\Lib\\site-packages\\std_msgs\\msg\\_u_int64_multi_array.py',
   'PYMODULE'),
  ('std_msgs.msg._u_int8',
   'C:\\dev\\ros2_humble\\Lib\\site-packages\\std_msgs\\msg\\_u_int8.py',
   'PYMODULE'),
  ('std_msgs.msg._u_int8_multi_array',
   'C:\\dev\\ros2_humble\\Lib\\site-packages\\std_msgs\\msg\\_u_int8_multi_array.py',
   'PYMODULE'),
  ('string', 'C:\\Python38\\lib\\string.py', 'PYMODULE'),
  ('stringprep', 'C:\\Python38\\lib\\stringprep.py', 'PYMODULE'),
  ('subprocess', 'C:\\Python38\\lib\\subprocess.py', 'PYMODULE'),
  ('sysconfig', 'C:\\Python38\\lib\\sysconfig.py', 'PYMODULE'),
  ('tarfile', 'C:\\Python38\\lib\\tarfile.py', 'PYMODULE'),
  ('tempfile', 'C:\\Python38\\lib\\tempfile.py', 'PYMODULE'),
  ('textwrap', 'C:\\Python38\\lib\\textwrap.py', 'PYMODULE'),
  ('threading', 'C:\\Python38\\lib\\threading.py', 'PYMODULE'),
  ('token', 'C:\\Python38\\lib\\token.py', 'PYMODULE'),
  ('tokenize', 'C:\\Python38\\lib\\tokenize.py', 'PYMODULE'),
  ('tracemalloc', 'C:\\Python38\\lib\\tracemalloc.py', 'PYMODULE'),
  ('tty', 'C:\\Python38\\lib\\tty.py', 'PYMODULE'),
  ('typing', 'C:\\Python38\\lib\\typing.py', 'PYMODULE'),
  ('typing_extensions',
   'C:\\Python38\\lib\\site-packages\\typing_extensions.py',
   'PYMODULE'),
  ('unique_identifier_msgs',
   'C:\\dev\\ros2_humble\\Lib\\site-packages\\unique_identifier_msgs\\__init__.py',
   'PYMODULE'),
  ('unique_identifier_msgs.msg',
   'C:\\dev\\ros2_humble\\Lib\\site-packages\\unique_identifier_msgs\\msg\\__init__.py',
   'PYMODULE'),
  ('unique_identifier_msgs.msg._uuid',
   'C:\\dev\\ros2_humble\\Lib\\site-packages\\unique_identifier_msgs\\msg\\_uuid.py',
   'PYMODULE'),
  ('unittest', 'C:\\Python38\\lib\\unittest\\__init__.py', 'PYMODULE'),
  ('unittest.async_case',
   'C:\\Python38\\lib\\unittest\\async_case.py',
   'PYMODULE'),
  ('unittest.case', 'C:\\Python38\\lib\\unittest\\case.py', 'PYMODULE'),
  ('unittest.loader', 'C:\\Python38\\lib\\unittest\\loader.py', 'PYMODULE'),
  ('unittest.main', 'C:\\Python38\\lib\\unittest\\main.py', 'PYMODULE'),
  ('unittest.result', 'C:\\Python38\\lib\\unittest\\result.py', 'PYMODULE'),
  ('unittest.runner', 'C:\\Python38\\lib\\unittest\\runner.py', 'PYMODULE'),
  ('unittest.signals', 'C:\\Python38\\lib\\unittest\\signals.py', 'PYMODULE'),
  ('unittest.suite', 'C:\\Python38\\lib\\unittest\\suite.py', 'PYMODULE'),
  ('unittest.util', 'C:\\Python38\\lib\\unittest\\util.py', 'PYMODULE'),
  ('urllib', 'C:\\Python38\\lib\\urllib\\__init__.py', 'PYMODULE'),
  ('urllib.error', 'C:\\Python38\\lib\\urllib\\error.py', 'PYMODULE'),
  ('urllib.parse', 'C:\\Python38\\lib\\urllib\\parse.py', 'PYMODULE'),
  ('urllib.request', 'C:\\Python38\\lib\\urllib\\request.py', 'PYMODULE'),
  ('urllib.response', 'C:\\Python38\\lib\\urllib\\response.py', 'PYMODULE'),
  ('uu', 'C:\\Python38\\lib\\uu.py', 'PYMODULE'),
  ('uuid', 'C:\\Python38\\lib\\uuid.py', 'PYMODULE'),
  ('webbrowser', 'C:\\Python38\\lib\\webbrowser.py', 'PYMODULE'),
  ('win32con',
   'C:\\Python38\\lib\\site-packages\\win32\\lib\\win32con.py',
   'PYMODULE'),
  ('win32evtlogutil',
   'C:\\Python38\\lib\\site-packages\\win32\\lib\\win32evtlogutil.py',
   'PYMODULE'),
  ('winerror',
   'C:\\Python38\\lib\\site-packages\\win32\\lib\\winerror.py',
   'PYMODULE'),
  ('xml', 'C:\\Python38\\lib\\xml\\__init__.py', 'PYMODULE'),
  ('xml.parsers', 'C:\\Python38\\lib\\xml\\parsers\\__init__.py', 'PYMODULE'),
  ('xml.parsers.expat',
   'C:\\Python38\\lib\\xml\\parsers\\expat.py',
   'PYMODULE'),
  ('xml.sax', 'C:\\Python38\\lib\\xml\\sax\\__init__.py', 'PYMODULE'),
  ('xml.sax._exceptions',
   'C:\\Python38\\lib\\xml\\sax\\_exceptions.py',
   'PYMODULE'),
  ('xml.sax.expatreader',
   'C:\\Python38\\lib\\xml\\sax\\expatreader.py',
   'PYMODULE'),
  ('xml.sax.handler', 'C:\\Python38\\lib\\xml\\sax\\handler.py', 'PYMODULE'),
  ('xml.sax.saxutils', 'C:\\Python38\\lib\\xml\\sax\\saxutils.py', 'PYMODULE'),
  ('xml.sax.xmlreader',
   'C:\\Python38\\lib\\xml\\sax\\xmlreader.py',
   'PYMODULE'),
  ('xmlrpc', 'C:\\Python38\\lib\\xmlrpc\\__init__.py', 'PYMODULE'),
  ('xmlrpc.client', 'C:\\Python38\\lib\\xmlrpc\\client.py', 'PYMODULE'),
  ('zipfile', 'C:\\Python38\\lib\\zipfile.py', 'PYMODULE'),
  ('zipimport', 'C:\\Python38\\lib\\zipimport.py', 'PYMODULE')])
